Insufficient Statistics - MRP Redux
…
)

`summarise()` has grouped output by 'division', 'state', 'race'. You can
override using the `.groups` argument.

# A tibble: 400 × 7
   division    state race     gender     n   perc perc_2
   <fct>       <chr> <chr>    <chr>  <int>  <dbl>  <dbl>
 1 New England CT    Asian    Female   958 0.0475  0.478
 2 New England CT    Asian    Male    1047 0.0519  0.522
 3 New England CT    Black    Female  2061 0.102   0.509
 4 New England CT    Black    Male    1989 0.0986  0.491
 5 New England CT    Hispanic Female  3053 0.151   0.499
 6 New England CT    Hispanic Male    3060 0.152   0.501
 7 New England CT    White    Female  3997 0.198   0.499
 8 New England CT    White    Male    4009 0.199   0.501
 9 New England MA    Asian    Female   999 0.0493  0.493
10 New England MA    Asian    Male    1026 0.0506  0.507
# … with 390 more rows
…
(by_state_race_estimated <- pred %>%
  group_by(state, race) %>%
  summarise(estimated_support = sum(state_race)) %>%
  left_join(population_data %>%
              group_by(state, race) %>%
              summarise(true_support = mean(true_opinion))))

`summarise()` has grouped output by 'state'. You can override using the
`.groups` argument.
`summarise()` has grouped output by 'state'. You can override using the
`.groups` argument.
Joining, by = c("state", "race")

# A tibble: 200 × 4
# Groups:   state [50]
   state race     estimated_support true_support
   <chr> <chr>                <dbl>        <dbl>
 1 AK    Asian                0.471        0.396
 2 AK    Black                0.510        0.494
 3 AK    Hispanic             0.490        0.496
 4 AK    White                0.465        0.508
 5 AL    Asian                0.518        0.388
 6 AL    Black                0.451        0.500
 7 AL    Hispanic             0.510        0.492
 8 AL    White                0.474        0.498
 9 AR    Asian                0.462        0.395
10 AR    Black                0.463        0.496
# … with 190 more rows
…
